Synthetic Control
…
uk_synth
```

```
## # A tibble: 334 × 11
##    .id      .placebo .type .outcome .predictors .synthetic_control .unit_weights
##    <chr>       <dbl> <chr> <list>   <list>      <list>             <list>       
##  1 United …        0 trea… <tibble> <tibble>    <tibble [35 × 3]>  <tibble>     
##  2 United …        0 cont… <tibble> <tibble>    <tibble [35 × 3]>  <tibble>     
##  3 Afghani…        1 trea… <tibble> <tibble>    <tibble [35 × 3]>  <tibble>     
##  4 Afghani…        1 cont… <tibble> <tibble>    <tibble [35 × 3]>  <tibble>     
##  5 Albania         1 trea… <tibble> <tibble>    <tibble [35 × 3]>  <tibble>     
##  6 Albania         1 cont… <tibble> <tibble>    <tibble [35 × 3]>  <tibble>     
##  7 Algeria         1 trea… <tibble> <tibble>    <tibble [35 × 3]>  <tibble>     
##  8 Algeria         1 cont… <tibble> <tibble>    <tibble [35 × 3]>  <tibble>     
##  9 Angola          1 trea… <tibble> <tibble>    <tibble [35 × 3]>  <tibble>     
## 10 Angola          1 cont… <tibble> <tibble>    <tibble [35 × 3]>  <tibble>     
## # ℹ 324 more rows
## # ℹ 4 more variables: .predictor_weights <list>, .original_data <list>,
## #   .meta <list>, .loss <list>
```
…
